{
    "%vlocity_namespace%__AdditionalInformation__c": "It creates subscription in matrix.",
    "%vlocity_namespace%__CustomJavaScript__c": "vpl_CreateDeviceNOfferInMatrixx_SampleInput.json",
    "%vlocity_namespace%__DisableMetadataCache__c": false,
    "%vlocity_namespace%__ElementTypeToHTMLTemplateList__c": "{\"ElementTypeToHTMLTemplateList\":[]}",
    "%vlocity_namespace%__Element__c": [
        "vpl_CreateDeviceNOfferInMatrixx_Element_GetOrderItemLevelDetailsFromAbsLayer.json",
        "vpl_CreateDeviceNOfferInMatrixx_Element_CreateDeviceNOfferInMatrix.json",
        "vpl_CreateDeviceNOfferInMatrixx_Element_CreateDeviceNOfferLoopBlock.json",
        "vpl_CreateDeviceNOfferInMatrixx_Element_CreateSubscriptionInMatrixx.json",
        "vpl_CreateDeviceNOfferInMatrixx_Element_ResponseAction.json"
    ],
    "%vlocity_namespace%__IsLwcEnabled__c": false,
    "%vlocity_namespace%__IsProcedure__c": true,
    "%vlocity_namespace%__IsReusable__c": false,
    "%vlocity_namespace%__Language__c": "Procedure",
    "%vlocity_namespace%__ProcedureKey__c": "vpl_CreateDeviceNOfferInMatrixx",
    "%vlocity_namespace%__PropertySet__c": "vpl_CreateDeviceNOfferInMatrixx_PropertySet.json",
    "%vlocity_namespace%__SubType__c": "CreateDeviceNOfferInMatrixx",
    "%vlocity_namespace%__Type__c": "vpl",
    "Name": "VPL-CreateDeviceNOfferInMatrixx",
    "VlocityDataPackType": "SObject",
    "VlocityRecordSObjectType": "%vlocity_namespace%__OmniScript__c",
    "VlocityRecordSourceKey": "%vlocity_namespace%__OmniScript__c/vpl/CreateDeviceNOfferInMatrixx/Procedure"
}