[
    {
        "%vlocity_namespace%__DomainObjectAPIName__c": "Formula",
        "%vlocity_namespace%__DomainObjectCreationOrder__c": 0,
        "%vlocity_namespace%__DomainObjectFieldAPIName__c": "Formula",
        "%vlocity_namespace%__FormulaOrder__c": 1,
        "%vlocity_namespace%__FormulaResultPath__c": "Offer:PurchasedOfferExtensionValue",
        "%vlocity_namespace%__Formula__c": "IF(Offer:PurchasedOfferExtension != null,Offer:PurchasedOfferExtension, null )",
        "%vlocity_namespace%__GlobalKey__c": "e88bbe47-d34c-1c6d-090d-c8182e654dcf",
        "%vlocity_namespace%__IsDisabled__c": false,
        "%vlocity_namespace%__IsRequiredForUpsert__c": false,
        "%vlocity_namespace%__MapId__c": "PurchasePlanBodyCustom3816",
        "%vlocity_namespace%__UpsertKey__c": false,
        "Name": "VPL-PurchasePlanBody",
        "VlocityDataPackType": "SObject",
        "VlocityRecordSObjectType": "%vlocity_namespace%__DRMapItem__c"
    },
    {
        "%vlocity_namespace%__DomainObjectAPIName__c": "Formula",
        "%vlocity_namespace%__DomainObjectCreationOrder__c": 0,
        "%vlocity_namespace%__DomainObjectFieldAPIName__c": "Formula",
        "%vlocity_namespace%__FormulaOrder__c": 2,
        "%vlocity_namespace%__FormulaResultPath__c": "Offer:PurchasedOfferExtensionTag",
        "%vlocity_namespace%__Formula__c": "IF(Offer:PurchasedOfferExtension != null, \"MtxPurchasedOfferExtension\", null )",
        "%vlocity_namespace%__GlobalKey__c": "dcefc11f-6bae-b2ba-3572-bfd14b961601",
        "%vlocity_namespace%__IsDisabled__c": false,
        "%vlocity_namespace%__IsRequiredForUpsert__c": false,
        "%vlocity_namespace%__MapId__c": "PurchasePlanBodyCustom9615",
        "%vlocity_namespace%__UpsertKey__c": false,
        "Name": "VPL-PurchasePlanBody",
        "VlocityDataPackType": "SObject",
        "VlocityRecordSObjectType": "%vlocity_namespace%__DRMapItem__c"
    },
    {
        "%vlocity_namespace%__DomainObjectAPIName__c": "Formula",
        "%vlocity_namespace%__DomainObjectCreationOrder__c": 0,
        "%vlocity_namespace%__DomainObjectFieldAPIName__c": "Formula",
        "%vlocity_namespace%__FormulaOrder__c": 3,
        "%vlocity_namespace%__FormulaResultPath__c": "Offer:PurchasedItemCycleDataTag",
        "%vlocity_namespace%__Formula__c": "IF(Offer:PurchasedItemCycleData != null,\"MtxPurchasedItemCycleData\", null )",
        "%vlocity_namespace%__GlobalKey__c": "0b2cabf4-5dfe-c89d-5a6a-8c2196cdd567",
        "%vlocity_namespace%__IsDisabled__c": false,
        "%vlocity_namespace%__IsRequiredForUpsert__c": false,
        "%vlocity_namespace%__MapId__c": "PurchasePlanBodyCustom3575",
        "%vlocity_namespace%__UpsertKey__c": false,
        "Name": "VPL-PurchasePlanBody",
        "VlocityDataPackType": "SObject",
        "VlocityRecordSObjectType": "%vlocity_namespace%__DRMapItem__c"
    },
    {
        "%vlocity_namespace%__DomainObjectAPIName__c": "Formula",
        "%vlocity_namespace%__DomainObjectCreationOrder__c": 0,
        "%vlocity_namespace%__DomainObjectFieldAPIName__c": "Formula",
        "%vlocity_namespace%__FormulaOrder__c": 4,
        "%vlocity_namespace%__FormulaResultPath__c": "ChargeMethodDataTag",
        "%vlocity_namespace%__Formula__c": "IF(ChargeMethodData != null,\"MtxChargeMethodData\", null )",
        "%vlocity_namespace%__GlobalKey__c": "4da69353-9ef4-c503-7af5-a5dfb3eb01bd",
        "%vlocity_namespace%__IsDisabled__c": false,
        "%vlocity_namespace%__IsRequiredForUpsert__c": false,
        "%vlocity_namespace%__MapId__c": "PurchasePlanBodyCustom8367",
        "%vlocity_namespace%__UpsertKey__c": false,
        "Name": "VPL-PurchasePlanBody",
        "VlocityDataPackType": "SObject",
        "VlocityRecordSObjectType": "%vlocity_namespace%__DRMapItem__c"
    },
    {
        "%vlocity_namespace%__DomainObjectAPIName__c": "Formula",
        "%vlocity_namespace%__DomainObjectCreationOrder__c": 0,
        "%vlocity_namespace%__DomainObjectFieldAPIName__c": "Formula",
        "%vlocity_namespace%__FormulaOrder__c": 5,
        "%vlocity_namespace%__FormulaResultPath__c": "ChargeMethodExtensionTag",
        "%vlocity_namespace%__Formula__c": "IF(ChargeMethodExtension != null, \"MtxChargeMethodExtension\", null )",
        "%vlocity_namespace%__GlobalKey__c": "e6e62220-f432-f5f9-f9b8-13d04988e309",
        "%vlocity_namespace%__IsDisabled__c": false,
        "%vlocity_namespace%__IsRequiredForUpsert__c": false,
        "%vlocity_namespace%__MapId__c": "PurchasePlanBodyCustom4144",
        "%vlocity_namespace%__UpsertKey__c": false,
        "Name": "VPL-PurchasePlanBody",
        "VlocityDataPackType": "SObject",
        "VlocityRecordSObjectType": "%vlocity_namespace%__DRMapItem__c"
    },
    {
        "%vlocity_namespace%__DomainObjectAPIName__c": "Formula",
        "%vlocity_namespace%__DomainObjectCreationOrder__c": 0,
        "%vlocity_namespace%__DomainObjectFieldAPIName__c": "Formula",
        "%vlocity_namespace%__FormulaOrder__c": 6,
        "%vlocity_namespace%__FormulaResultPath__c": "ChargeMethodExtensionValue",
        "%vlocity_namespace%__Formula__c": "IF(ChargeMethodExtension != null, ChargeMethodExtension, null )",
        "%vlocity_namespace%__GlobalKey__c": "32ed2ad2-eee4-a4ec-b287-732f2af87899",
        "%vlocity_namespace%__IsDisabled__c": false,
        "%vlocity_namespace%__IsRequiredForUpsert__c": false,
        "%vlocity_namespace%__MapId__c": "PurchasePlanBodyCustom8102",
        "%vlocity_namespace%__UpsertKey__c": false,
        "Name": "VPL-PurchasePlanBody",
        "VlocityDataPackType": "SObject",
        "VlocityRecordSObjectType": "%vlocity_namespace%__DRMapItem__c"
    },
    {
        "%vlocity_namespace%__DefaultValue__c": "MtxRequestSubscriberPurchaseOffer",
        "%vlocity_namespace%__DomainObjectAPIName__c": "json",
        "%vlocity_namespace%__DomainObjectCreationOrder__c": 1,
        "%vlocity_namespace%__DomainObjectFieldAPIName__c": "$",
        "%vlocity_namespace%__GlobalKey__c": "d8ceb52e-7717-3926-6256-9f214356e090",
        "%vlocity_namespace%__IsDisabled__c": false,
        "%vlocity_namespace%__IsRequiredForUpsert__c": false,
        "%vlocity_namespace%__MapId__c": "PurchasePlanBodyCustom8046",
        "%vlocity_namespace%__UpsertKey__c": false,
        "Name": "VPL-PurchasePlanBody",
        "VlocityDataPackType": "SObject",
        "VlocityRecordSObjectType": "%vlocity_namespace%__DRMapItem__c"
    },
    {
        "%vlocity_namespace%__DomainObjectAPIName__c": "json",
        "%vlocity_namespace%__DomainObjectCreationOrder__c": 1,
        "%vlocity_namespace%__DomainObjectFieldAPIName__c": "ChargeMethodData:$",
        "%vlocity_namespace%__GlobalKey__c": "f0fa4d0d-e444-47c0-4815-ec3bd5dfb55f",
        "%vlocity_namespace%__InterfaceFieldAPIName__c": "ChargeMethodDataTag",
        "%vlocity_namespace%__IsDisabled__c": false,
        "%vlocity_namespace%__IsRequiredForUpsert__c": false,
        "%vlocity_namespace%__MapId__c": "PurchasePlanBodyCustom7211",
        "%vlocity_namespace%__UpsertKey__c": false,
        "Name": "VPL-PurchasePlanBody",
        "VlocityDataPackType": "SObject",
        "VlocityRecordSObjectType": "%vlocity_namespace%__DRMapItem__c"
    },
    {
        "%vlocity_namespace%__DomainObjectAPIName__c": "json",
        "%vlocity_namespace%__DomainObjectCreationOrder__c": 1,
        "%vlocity_namespace%__DomainObjectFieldAPIName__c": "ChargeMethodData:ChargeMethod",
        "%vlocity_namespace%__GlobalKey__c": "836c5eb9-7993-684a-df38-177a574aaa47",
        "%vlocity_namespace%__InterfaceFieldAPIName__c": "ChargeMethod",
        "%vlocity_namespace%__IsDisabled__c": false,
        "%vlocity_namespace%__IsRequiredForUpsert__c": false,
        "%vlocity_namespace%__MapId__c": "PurchasePlanBodyCustom556",
        "%vlocity_namespace%__UpsertKey__c": false,
        "Name": "VPL-PurchasePlanBody",
        "VlocityDataPackType": "SObject",
        "VlocityRecordSObjectType": "%vlocity_namespace%__DRMapItem__c"
    },
    {
        "%vlocity_namespace%__DomainObjectAPIName__c": "json",
        "%vlocity_namespace%__DomainObjectCreationOrder__c": 1,
        "%vlocity_namespace%__DomainObjectFieldAPIName__c": "ChargeMethodData:ChargeMethodAttr:$",
        "%vlocity_namespace%__GlobalKey__c": "715be5c9-52a5-5e61-8436-d762be39b8f4",
        "%vlocity_namespace%__InterfaceFieldAPIName__c": "ChargeMethodExtensionTag",
        "%vlocity_namespace%__IsDisabled__c": false,
        "%vlocity_namespace%__IsRequiredForUpsert__c": false,
        "%vlocity_namespace%__MapId__c": "PurchasePlanBodyCustom7098",
        "%vlocity_namespace%__UpsertKey__c": false,
        "Name": "VPL-PurchasePlanBody",
        "VlocityDataPackType": "SObject",
        "VlocityRecordSObjectType": "%vlocity_namespace%__DRMapItem__c"
    },
    {
        "%vlocity_namespace%__DomainObjectAPIName__c": "json",
        "%vlocity_namespace%__DomainObjectCreationOrder__c": 1,
        "%vlocity_namespace%__DomainObjectFieldAPIName__c": "ChargeMethodData:ChargeMethodAttr:MtxChargeMethodExtension",
        "%vlocity_namespace%__GlobalKey__c": "6d4cfeda-dadc-3a19-92a0-8edc3847680d",
        "%vlocity_namespace%__InterfaceFieldAPIName__c": "ChargeMethodExtensionValue",
        "%vlocity_namespace%__IsDisabled__c": false,
        "%vlocity_namespace%__IsRequiredForUpsert__c": false,
        "%vlocity_namespace%__MapId__c": "PurchasePlanBodyCustom2392",
        "%vlocity_namespace%__UpsertKey__c": false,
        "Name": "VPL-PurchasePlanBody",
        "VlocityDataPackType": "SObject",
        "VlocityRecordSObjectType": "%vlocity_namespace%__DRMapItem__c"
    },
    {
        "%vlocity_namespace%__DomainObjectAPIName__c": "json",
        "%vlocity_namespace%__DomainObjectCreationOrder__c": 1,
        "%vlocity_namespace%__DomainObjectFieldAPIName__c": "ChargeMethodData:PaymentGatewayId",
        "%vlocity_namespace%__GlobalKey__c": "53a5b5ca-cc61-ee0c-be71-621b3d3b929a",
        "%vlocity_namespace%__InterfaceFieldAPIName__c": "PaymentGatewayId",
        "%vlocity_namespace%__IsDisabled__c": false,
        "%vlocity_namespace%__IsRequiredForUpsert__c": false,
        "%vlocity_namespace%__MapId__c": "PurchasePlanBodyCustom2494",
        "%vlocity_namespace%__UpsertKey__c": false,
        "Name": "VPL-PurchasePlanBody",
        "VlocityDataPackType": "SObject",
        "VlocityRecordSObjectType": "%vlocity_namespace%__DRMapItem__c"
    },
    {
        "%vlocity_namespace%__DomainObjectAPIName__c": "json",
        "%vlocity_namespace%__DomainObjectCreationOrder__c": 1,
        "%vlocity_namespace%__DomainObjectFieldAPIName__c": "ChargeMethodData:PaymentGatewayOneTimeToken",
        "%vlocity_namespace%__GlobalKey__c": "ccec8cf1-b7c5-3871-f1bb-890c21626469",
        "%vlocity_namespace%__InterfaceFieldAPIName__c": "PaymentGatewayOneTimeToken",
        "%vlocity_namespace%__IsDisabled__c": false,
        "%vlocity_namespace%__IsRequiredForUpsert__c": false,
        "%vlocity_namespace%__MapId__c": "PurchasePlanBodyCustom4045",
        "%vlocity_namespace%__UpsertKey__c": false,
        "Name": "VPL-PurchasePlanBody",
        "VlocityDataPackType": "SObject",
        "VlocityRecordSObjectType": "%vlocity_namespace%__DRMapItem__c"
    },
    {
        "%vlocity_namespace%__DomainObjectAPIName__c": "json",
        "%vlocity_namespace%__DomainObjectCreationOrder__c": 1,
        "%vlocity_namespace%__DomainObjectFieldAPIName__c": "ChargeMethodData:PaymentMethodResourceId",
        "%vlocity_namespace%__GlobalKey__c": "25cccb66-d442-cba9-364a-a2238833061a",
        "%vlocity_namespace%__InterfaceFieldAPIName__c": "PaymentMethodResourceId",
        "%vlocity_namespace%__IsDisabled__c": false,
        "%vlocity_namespace%__IsRequiredForUpsert__c": false,
        "%vlocity_namespace%__MapId__c": "PurchasePlanBodyCustom2362",
        "%vlocity_namespace%__UpsertKey__c": false,
        "Name": "VPL-PurchasePlanBody",
        "VlocityDataPackType": "SObject",
        "VlocityRecordSObjectType": "%vlocity_namespace%__DRMapItem__c"
    },
    {
        "%vlocity_namespace%__DomainObjectAPIName__c": "json",
        "%vlocity_namespace%__DomainObjectCreationOrder__c": 1,
        "%vlocity_namespace%__DomainObjectFieldAPIName__c": "OfferRequestArray",
        "%vlocity_namespace%__DomainObjectFieldType__c": "List<Map>",
        "%vlocity_namespace%__GlobalKey__c": "48ca33b2-b538-454b-8df1-0a8d8d8892cb",
        "%vlocity_namespace%__IsDisabled__c": false,
        "%vlocity_namespace%__IsRequiredForUpsert__c": false,
        "%vlocity_namespace%__MapId__c": "PurchasePlanBodyCustom508",
        "%vlocity_namespace%__UpsertKey__c": false,
        "Name": "VPL-PurchasePlanBody",
        "VlocityDataPackType": "SObject",
        "VlocityRecordSObjectType": "%vlocity_namespace%__DRMapItem__c"
    },
    {
        "%vlocity_namespace%__DefaultValue__c": "MtxPurchasedOfferData",
        "%vlocity_namespace%__DomainObjectAPIName__c": "json",
        "%vlocity_namespace%__DomainObjectCreationOrder__c": 1,
        "%vlocity_namespace%__DomainObjectFieldAPIName__c": "OfferRequestArray:$",
        "%vlocity_namespace%__GlobalKey__c": "f511af22-c3ee-6948-4ace-07ea9b2ad30e",
        "%vlocity_namespace%__InterfaceFieldAPIName__c": "OfferRequestArray:$",
        "%vlocity_namespace%__IsDisabled__c": false,
        "%vlocity_namespace%__IsRequiredForUpsert__c": false,
        "%vlocity_namespace%__MapId__c": "PurchasePlanBodyCustom2857",
        "%vlocity_namespace%__UpsertKey__c": false,
        "Name": "VPL-PurchasePlanBody",
        "VlocityDataPackType": "SObject",
        "VlocityRecordSObjectType": "%vlocity_namespace%__DRMapItem__c"
    },
    {
        "%vlocity_namespace%__DomainObjectAPIName__c": "json",
        "%vlocity_namespace%__DomainObjectCreationOrder__c": 1,
        "%vlocity_namespace%__DomainObjectFieldAPIName__c": "OfferRequestArray:ActivationExpirationRelativeOffset",
        "%vlocity_namespace%__GlobalKey__c": "64e91e59-2df8-d0fa-7dab-f02be1c1b852",
        "%vlocity_namespace%__InterfaceFieldAPIName__c": "Offer:ActivationExpirationRelativeOffset",
        "%vlocity_namespace%__IsDisabled__c": false,
        "%vlocity_namespace%__IsRequiredForUpsert__c": false,
        "%vlocity_namespace%__MapId__c": "PurchasePlanBodyCustom8249",
        "%vlocity_namespace%__UpsertKey__c": false,
        "Name": "VPL-PurchasePlanBody",
        "VlocityDataPackType": "SObject",
        "VlocityRecordSObjectType": "%vlocity_namespace%__DRMapItem__c"
    },
    {
        "%vlocity_namespace%__DomainObjectAPIName__c": "json",
        "%vlocity_namespace%__DomainObjectCreationOrder__c": 1,
        "%vlocity_namespace%__DomainObjectFieldAPIName__c": "OfferRequestArray:ActivationExpirationRelativeOffsetUnit",
        "%vlocity_namespace%__GlobalKey__c": "0a2d6d97-852e-cf61-76d1-6e40b0e7185c",
        "%vlocity_namespace%__InterfaceFieldAPIName__c": "Offer:ActivationExpirationRelativeOffsetUnit",
        "%vlocity_namespace%__IsDisabled__c": false,
        "%vlocity_namespace%__IsRequiredForUpsert__c": false,
        "%vlocity_namespace%__MapId__c": "PurchasePlanBodyCustom6010",
        "%vlocity_namespace%__UpsertKey__c": false,
        "Name": "VPL-PurchasePlanBody",
        "VlocityDataPackType": "SObject",
        "VlocityRecordSObjectType": "%vlocity_namespace%__DRMapItem__c"
    },
    {
        "%vlocity_namespace%__DomainObjectAPIName__c": "json",
        "%vlocity_namespace%__DomainObjectCreationOrder__c": 1,
        "%vlocity_namespace%__DomainObjectFieldAPIName__c": "OfferRequestArray:ActivationExpirationTime",
        "%vlocity_namespace%__GlobalKey__c": "f9e4659a-4244-7b35-099e-c334f36d22b9",
        "%vlocity_namespace%__InterfaceFieldAPIName__c": "Offer:ActivationExpirationTime",
        "%vlocity_namespace%__IsDisabled__c": false,
        "%vlocity_namespace%__IsRequiredForUpsert__c": false,
        "%vlocity_namespace%__MapId__c": "PurchasePlanBodyCustom4317",
        "%vlocity_namespace%__UpsertKey__c": false,
        "Name": "VPL-PurchasePlanBody",
        "VlocityDataPackType": "SObject",
        "VlocityRecordSObjectType": "%vlocity_namespace%__DRMapItem__c"
    },
    {
        "%vlocity_namespace%__DomainObjectAPIName__c": "json",
        "%vlocity_namespace%__DomainObjectCreationOrder__c": 1,
        "%vlocity_namespace%__DomainObjectFieldAPIName__c": "OfferRequestArray:Attr:$",
        "%vlocity_namespace%__GlobalKey__c": "835db7d2-ad73-891f-217d-92ce1bcc0de3",
        "%vlocity_namespace%__InterfaceFieldAPIName__c": "Offer:PurchasedOfferExtensionTag",
        "%vlocity_namespace%__IsDisabled__c": false,
        "%vlocity_namespace%__IsRequiredForUpsert__c": false,
        "%vlocity_namespace%__MapId__c": "PurchasePlanBodyCustom8468",
        "%vlocity_namespace%__UpsertKey__c": false,
        "Name": "VPL-PurchasePlanBody",
        "VlocityDataPackType": "SObject",
        "VlocityRecordSObjectType": "%vlocity_namespace%__DRMapItem__c"
    },
    {
        "%vlocity_namespace%__DomainObjectAPIName__c": "json",
        "%vlocity_namespace%__DomainObjectCreationOrder__c": 1,
        "%vlocity_namespace%__DomainObjectFieldAPIName__c": "OfferRequestArray:Attr:MtxPurchasedOfferExtension",
        "%vlocity_namespace%__GlobalKey__c": "3feb40b3-2d69-7306-b31b-7d3bdf2a8b92",
        "%vlocity_namespace%__InterfaceFieldAPIName__c": "Offer:PurchasedOfferExtensionValue",
        "%vlocity_namespace%__IsDisabled__c": false,
        "%vlocity_namespace%__IsRequiredForUpsert__c": false,
        "%vlocity_namespace%__MapId__c": "PurchasePlanBodyCustom1702",
        "%vlocity_namespace%__UpsertKey__c": false,
        "Name": "VPL-PurchasePlanBody",
        "VlocityDataPackType": "SObject",
        "VlocityRecordSObjectType": "%vlocity_namespace%__DRMapItem__c"
    },
    {
        "%vlocity_namespace%__DomainObjectAPIName__c": "json",
        "%vlocity_namespace%__DomainObjectCreationOrder__c": 1,
        "%vlocity_namespace%__DomainObjectFieldAPIName__c": "OfferRequestArray:AutoActivationCycleResourceId",
        "%vlocity_namespace%__GlobalKey__c": "009c59d2-b527-f6c8-2c90-82ccb94a5459",
        "%vlocity_namespace%__InterfaceFieldAPIName__c": "Offer:AutoActivationCycleResourceId",
        "%vlocity_namespace%__IsDisabled__c": false,
        "%vlocity_namespace%__IsRequiredForUpsert__c": false,
        "%vlocity_namespace%__MapId__c": "PurchasePlanBodyCustom8092",
        "%vlocity_namespace%__UpsertKey__c": false,
        "Name": "VPL-PurchasePlanBody",
        "VlocityDataPackType": "SObject",
        "VlocityRecordSObjectType": "%vlocity_namespace%__DRMapItem__c"
    },
    {
        "%vlocity_namespace%__DomainObjectAPIName__c": "json",
        "%vlocity_namespace%__DomainObjectCreationOrder__c": 1,
        "%vlocity_namespace%__DomainObjectFieldAPIName__c": "OfferRequestArray:AutoActivationRelativeOffset",
        "%vlocity_namespace%__GlobalKey__c": "5eaed697-d9f3-2276-0346-3af67eb7fb5b",
        "%vlocity_namespace%__InterfaceFieldAPIName__c": "Offer:AutoActivationRelativeOffset",
        "%vlocity_namespace%__IsDisabled__c": false,
        "%vlocity_namespace%__IsRequiredForUpsert__c": false,
        "%vlocity_namespace%__MapId__c": "PurchasePlanBodyCustom3854",
        "%vlocity_namespace%__UpsertKey__c": false,
        "Name": "VPL-PurchasePlanBody",
        "VlocityDataPackType": "SObject",
        "VlocityRecordSObjectType": "%vlocity_namespace%__DRMapItem__c"
    },
    {
        "%vlocity_namespace%__DomainObjectAPIName__c": "json",
        "%vlocity_namespace%__DomainObjectCreationOrder__c": 1,
        "%vlocity_namespace%__DomainObjectFieldAPIName__c": "OfferRequestArray:AutoActivationRelativeOffsetUnit",
        "%vlocity_namespace%__GlobalKey__c": "c829b547-8278-b12b-ef56-1eeb01a0e19d",
        "%vlocity_namespace%__InterfaceFieldAPIName__c": "Offer:AutoActivationRelativeOffsetUnit",
        "%vlocity_namespace%__IsDisabled__c": false,
        "%vlocity_namespace%__IsRequiredForUpsert__c": false,
        "%vlocity_namespace%__MapId__c": "PurchasePlanBodyCustom7014",
        "%vlocity_namespace%__UpsertKey__c": false,
        "Name": "VPL-PurchasePlanBody",
        "VlocityDataPackType": "SObject",
        "VlocityRecordSObjectType": "%vlocity_namespace%__DRMapItem__c"
    },
    {
        "%vlocity_namespace%__DomainObjectAPIName__c": "json",
        "%vlocity_namespace%__DomainObjectCreationOrder__c": 1,
        "%vlocity_namespace%__DomainObjectFieldAPIName__c": "OfferRequestArray:AutoActivationTime",
        "%vlocity_namespace%__GlobalKey__c": "36f87fde-5985-7adb-1593-272e55065df6",
        "%vlocity_namespace%__InterfaceFieldAPIName__c": "Offer:AutoActivationTime",
        "%vlocity_namespace%__IsDisabled__c": false,
        "%vlocity_namespace%__IsRequiredForUpsert__c": false,
        "%vlocity_namespace%__MapId__c": "PurchasePlanBodyCustom6704",
        "%vlocity_namespace%__UpsertKey__c": false,
        "Name": "VPL-PurchasePlanBody",
        "VlocityDataPackType": "SObject",
        "VlocityRecordSObjectType": "%vlocity_namespace%__DRMapItem__c"
    },
    {
        "%vlocity_namespace%__DomainObjectAPIName__c": "json",
        "%vlocity_namespace%__DomainObjectCreationOrder__c": 1,
        "%vlocity_namespace%__DomainObjectFieldAPIName__c": "OfferRequestArray:CatalogItemId",
        "%vlocity_namespace%__GlobalKey__c": "a05dca42-39ef-45c3-0cee-d7097cac7d2a",
        "%vlocity_namespace%__InterfaceFieldAPIName__c": "Offer:CatalogItemId",
        "%vlocity_namespace%__IsDisabled__c": false,
        "%vlocity_namespace%__IsRequiredForUpsert__c": false,
        "%vlocity_namespace%__MapId__c": "PurchasePlanBodyCustom2760",
        "%vlocity_namespace%__UpsertKey__c": false,
        "Name": "VPL-PurchasePlanBody",
        "VlocityDataPackType": "SObject",
        "VlocityRecordSObjectType": "%vlocity_namespace%__DRMapItem__c"
    },
    {
        "%vlocity_namespace%__DomainObjectAPIName__c": "json",
        "%vlocity_namespace%__DomainObjectCreationOrder__c": 1,
        "%vlocity_namespace%__DomainObjectFieldAPIName__c": "OfferRequestArray:CycleData:$",
        "%vlocity_namespace%__GlobalKey__c": "d5fb9c05-abc4-ad90-b848-e9cc85f73dd7",
        "%vlocity_namespace%__InterfaceFieldAPIName__c": "Offer:PurchasedItemCycleDataTag",
        "%vlocity_namespace%__IsDisabled__c": false,
        "%vlocity_namespace%__IsRequiredForUpsert__c": false,
        "%vlocity_namespace%__MapId__c": "PurchasePlanBodyCustom9722",
        "%vlocity_namespace%__UpsertKey__c": false,
        "Name": "VPL-PurchasePlanBody",
        "VlocityDataPackType": "SObject",
        "VlocityRecordSObjectType": "%vlocity_namespace%__DRMapItem__c"
    },
    {
        "%vlocity_namespace%__DomainObjectAPIName__c": "json",
        "%vlocity_namespace%__DomainObjectCreationOrder__c": 1,
        "%vlocity_namespace%__DomainObjectFieldAPIName__c": "OfferRequestArray:CycleData:CycleAlignmentDisabled",
        "%vlocity_namespace%__GlobalKey__c": "b67614a4-a8b9-059f-1335-7e046133bea9",
        "%vlocity_namespace%__InterfaceFieldAPIName__c": "Offer:CycleAlignmentDisabled",
        "%vlocity_namespace%__IsDisabled__c": false,
        "%vlocity_namespace%__IsRequiredForUpsert__c": false,
        "%vlocity_namespace%__MapId__c": "PurchasePlanBodyCustom7016",
        "%vlocity_namespace%__UpsertKey__c": false,
        "Name": "VPL-PurchasePlanBody",
        "VlocityDataPackType": "SObject",
        "VlocityRecordSObjectType": "%vlocity_namespace%__DRMapItem__c"
    },
    {
        "%vlocity_namespace%__DomainObjectAPIName__c": "json",
        "%vlocity_namespace%__DomainObjectCreationOrder__c": 1,
        "%vlocity_namespace%__DomainObjectFieldAPIName__c": "OfferRequestArray:CycleData:CycleOffset",
        "%vlocity_namespace%__GlobalKey__c": "cccab3cb-e4ce-ec03-9d78-c42db9f4ad60",
        "%vlocity_namespace%__InterfaceFieldAPIName__c": "Offer:CycleOffset",
        "%vlocity_namespace%__IsDisabled__c": false,
        "%vlocity_namespace%__IsRequiredForUpsert__c": false,
        "%vlocity_namespace%__MapId__c": "PurchasePlanBodyCustom9399",
        "%vlocity_namespace%__UpsertKey__c": false,
        "Name": "VPL-PurchasePlanBody",
        "VlocityDataPackType": "SObject",
        "VlocityRecordSObjectType": "%vlocity_namespace%__DRMapItem__c"
    },
    {
        "%vlocity_namespace%__DomainObjectAPIName__c": "json",
        "%vlocity_namespace%__DomainObjectCreationOrder__c": 1,
        "%vlocity_namespace%__DomainObjectFieldAPIName__c": "OfferRequestArray:CycleData:CycleOwnerType",
        "%vlocity_namespace%__GlobalKey__c": "bbdcfa32-d636-4a7a-acf2-94a571c1051a",
        "%vlocity_namespace%__InterfaceFieldAPIName__c": "Offer:CycleOwnerType",
        "%vlocity_namespace%__IsDisabled__c": false,
        "%vlocity_namespace%__IsRequiredForUpsert__c": false,
        "%vlocity_namespace%__MapId__c": "PurchasePlanBodyCustom6630",
        "%vlocity_namespace%__UpsertKey__c": false,
        "Name": "VPL-PurchasePlanBody",
        "VlocityDataPackType": "SObject",
        "VlocityRecordSObjectType": "%vlocity_namespace%__DRMapItem__c"
    },
    {
        "%vlocity_namespace%__DomainObjectAPIName__c": "json",
        "%vlocity_namespace%__DomainObjectCreationOrder__c": 1,
        "%vlocity_namespace%__DomainObjectFieldAPIName__c": "OfferRequestArray:CycleData:CycleResourceId",
        "%vlocity_namespace%__GlobalKey__c": "48fd1160-4fb7-1a04-b25f-47c26419ea29",
        "%vlocity_namespace%__InterfaceFieldAPIName__c": "Offer:CycleResourceId",
        "%vlocity_namespace%__IsDisabled__c": false,
        "%vlocity_namespace%__IsRequiredForUpsert__c": false,
        "%vlocity_namespace%__MapId__c": "PurchasePlanBodyCustom7640",
        "%vlocity_namespace%__UpsertKey__c": false,
        "Name": "VPL-PurchasePlanBody",
        "VlocityDataPackType": "SObject",
        "VlocityRecordSObjectType": "%vlocity_namespace%__DRMapItem__c"
    },
    {
        "%vlocity_namespace%__DomainObjectAPIName__c": "json",
        "%vlocity_namespace%__DomainObjectCreationOrder__c": 1,
        "%vlocity_namespace%__DomainObjectFieldAPIName__c": "OfferRequestArray:CycleData:CycleType",
        "%vlocity_namespace%__GlobalKey__c": "a2024d61-04fc-c09c-7768-b896ddb0ea13",
        "%vlocity_namespace%__InterfaceFieldAPIName__c": "Offer:CycleType",
        "%vlocity_namespace%__IsDisabled__c": false,
        "%vlocity_namespace%__IsRequiredForUpsert__c": false,
        "%vlocity_namespace%__MapId__c": "PurchasePlanBodyCustom4949",
        "%vlocity_namespace%__UpsertKey__c": false,
        "Name": "VPL-PurchasePlanBody",
        "VlocityDataPackType": "SObject",
        "VlocityRecordSObjectType": "%vlocity_namespace%__DRMapItem__c"
    },
    {
        "%vlocity_namespace%__DomainObjectAPIName__c": "json",
        "%vlocity_namespace%__DomainObjectCreationOrder__c": 1,
        "%vlocity_namespace%__DomainObjectFieldAPIName__c": "OfferRequestArray:CycleData:ImmediateChange",
        "%vlocity_namespace%__GlobalKey__c": "7bda79ee-13b6-0e7f-8736-01e68bb664db",
        "%vlocity_namespace%__InterfaceFieldAPIName__c": "Offer:CycleDataImmediateChange",
        "%vlocity_namespace%__IsDisabled__c": false,
        "%vlocity_namespace%__IsRequiredForUpsert__c": false,
        "%vlocity_namespace%__MapId__c": "PurchasePlanBodyCustom929",
        "%vlocity_namespace%__UpsertKey__c": false,
        "Name": "VPL-PurchasePlanBody",
        "VlocityDataPackType": "SObject",
        "VlocityRecordSObjectType": "%vlocity_namespace%__DRMapItem__c"
    },
    {
        "%vlocity_namespace%__DomainObjectAPIName__c": "json",
        "%vlocity_namespace%__DomainObjectCreationOrder__c": 1,
        "%vlocity_namespace%__DomainObjectFieldAPIName__c": "OfferRequestArray:EndTime",
        "%vlocity_namespace%__GlobalKey__c": "15a680fb-5b96-4e0b-ea38-93ed926a927d",
        "%vlocity_namespace%__InterfaceFieldAPIName__c": "Offer:EndTime",
        "%vlocity_namespace%__IsDisabled__c": false,
        "%vlocity_namespace%__IsRequiredForUpsert__c": false,
        "%vlocity_namespace%__MapId__c": "PurchasePlanBodyCustom4417",
        "%vlocity_namespace%__UpsertKey__c": false,
        "Name": "VPL-PurchasePlanBody",
        "VlocityDataPackType": "SObject",
        "VlocityRecordSObjectType": "%vlocity_namespace%__DRMapItem__c"
    },
    {
        "%vlocity_namespace%__DomainObjectAPIName__c": "json",
        "%vlocity_namespace%__DomainObjectCreationOrder__c": 1,
        "%vlocity_namespace%__DomainObjectFieldAPIName__c": "OfferRequestArray:EndTimeRelativeOffset",
        "%vlocity_namespace%__GlobalKey__c": "837b8d2b-f58d-61d4-1131-77a4d2fa198d",
        "%vlocity_namespace%__InterfaceFieldAPIName__c": "Offer:EndTimeRelativeOffset",
        "%vlocity_namespace%__IsDisabled__c": false,
        "%vlocity_namespace%__IsRequiredForUpsert__c": false,
        "%vlocity_namespace%__MapId__c": "PurchasePlanBodyCustom5117",
        "%vlocity_namespace%__UpsertKey__c": false,
        "Name": "VPL-PurchasePlanBody",
        "VlocityDataPackType": "SObject",
        "VlocityRecordSObjectType": "%vlocity_namespace%__DRMapItem__c"
    },
    {
        "%vlocity_namespace%__DomainObjectAPIName__c": "json",
        "%vlocity_namespace%__DomainObjectCreationOrder__c": 1,
        "%vlocity_namespace%__DomainObjectFieldAPIName__c": "OfferRequestArray:EndTimeRelativeOffsetUnit",
        "%vlocity_namespace%__GlobalKey__c": "3298f5f7-512e-9984-fdfc-2a7fa159bef5",
        "%vlocity_namespace%__InterfaceFieldAPIName__c": "Offer:EndTimeRelativeOffsetUnit",
        "%vlocity_namespace%__IsDisabled__c": false,
        "%vlocity_namespace%__IsRequiredForUpsert__c": false,
        "%vlocity_namespace%__MapId__c": "PurchasePlanBodyCustom4863",
        "%vlocity_namespace%__UpsertKey__c": false,
        "Name": "VPL-PurchasePlanBody",
        "VlocityDataPackType": "SObject",
        "VlocityRecordSObjectType": "%vlocity_namespace%__DRMapItem__c"
    },
    {
        "%vlocity_namespace%__DomainObjectAPIName__c": "json",
        "%vlocity_namespace%__DomainObjectCreationOrder__c": 1,
        "%vlocity_namespace%__DomainObjectFieldAPIName__c": "OfferRequestArray:ExternalId",
        "%vlocity_namespace%__GlobalKey__c": "b2eff096-b775-58a7-11a0-3368a665a654",
        "%vlocity_namespace%__InterfaceFieldAPIName__c": "Offer:ExternalId",
        "%vlocity_namespace%__IsDisabled__c": false,
        "%vlocity_namespace%__IsRequiredForUpsert__c": false,
        "%vlocity_namespace%__MapId__c": "PurchasePlanBodyCustom9322",
        "%vlocity_namespace%__UpsertKey__c": false,
        "Name": "VPL-PurchasePlanBody",
        "VlocityDataPackType": "SObject",
        "VlocityRecordSObjectType": "%vlocity_namespace%__DRMapItem__c"
    },
    {
        "%vlocity_namespace%__DomainObjectAPIName__c": "json",
        "%vlocity_namespace%__DomainObjectCreationOrder__c": 1,
        "%vlocity_namespace%__DomainObjectFieldAPIName__c": "OfferRequestArray:PreActiveState",
        "%vlocity_namespace%__GlobalKey__c": "61bf817d-26ef-acd8-4b22-a82dc6d1cf61",
        "%vlocity_namespace%__InterfaceFieldAPIName__c": "Offer:PreActiveState",
        "%vlocity_namespace%__IsDisabled__c": false,
        "%vlocity_namespace%__IsRequiredForUpsert__c": false,
        "%vlocity_namespace%__MapId__c": "PurchasePlanBodyCustom7554",
        "%vlocity_namespace%__UpsertKey__c": false,
        "Name": "VPL-PurchasePlanBody",
        "VlocityDataPackType": "SObject",
        "VlocityRecordSObjectType": "%vlocity_namespace%__DRMapItem__c"
    },
    {
        "%vlocity_namespace%__DomainObjectAPIName__c": "json",
        "%vlocity_namespace%__DomainObjectCreationOrder__c": 1,
        "%vlocity_namespace%__DomainObjectFieldAPIName__c": "OfferRequestArray:ProductOfferId",
        "%vlocity_namespace%__GlobalKey__c": "99ed4c75-a32d-5139-f405-08917eab57d4",
        "%vlocity_namespace%__InterfaceFieldAPIName__c": "Offer:ProductOfferId",
        "%vlocity_namespace%__IsDisabled__c": false,
        "%vlocity_namespace%__IsRequiredForUpsert__c": false,
        "%vlocity_namespace%__MapId__c": "PurchasePlanBodyCustoma0O460000067ZqWEAUItem1",
        "%vlocity_namespace%__TransformValuesMap__c": "{}",
        "%vlocity_namespace%__UpsertKey__c": false,
        "Name": "VPL-PurchasePlanBody",
        "VlocityDataPackType": "SObject",
        "VlocityRecordSObjectType": "%vlocity_namespace%__DRMapItem__c"
    },
    {
        "%vlocity_namespace%__DomainObjectAPIName__c": "json",
        "%vlocity_namespace%__DomainObjectCreationOrder__c": 1,
        "%vlocity_namespace%__DomainObjectFieldAPIName__c": "OfferRequestArray:ProductOfferVersion",
        "%vlocity_namespace%__GlobalKey__c": "4154a519-a232-1973-2da7-54c3debc4a08",
        "%vlocity_namespace%__InterfaceFieldAPIName__c": "Offer:ProductOfferVersion",
        "%vlocity_namespace%__IsDisabled__c": false,
        "%vlocity_namespace%__IsRequiredForUpsert__c": false,
        "%vlocity_namespace%__MapId__c": "PurchasePlanBodyCustom1393",
        "%vlocity_namespace%__UpsertKey__c": false,
        "Name": "VPL-PurchasePlanBody",
        "VlocityDataPackType": "SObject",
        "VlocityRecordSObjectType": "%vlocity_namespace%__DRMapItem__c"
    },
    {
        "%vlocity_namespace%__DefaultValue__c": "NowStartDate",
        "%vlocity_namespace%__DomainObjectAPIName__c": "json",
        "%vlocity_namespace%__DomainObjectCreationOrder__c": 1,
        "%vlocity_namespace%__DomainObjectFieldAPIName__c": "OfferRequestArray:StartTime",
        "%vlocity_namespace%__GlobalKey__c": "fb065344-c75f-6f12-d68e-403a2763b002",
        "%vlocity_namespace%__InterfaceFieldAPIName__c": "Offer:StartTime",
        "%vlocity_namespace%__IsDisabled__c": false,
        "%vlocity_namespace%__IsRequiredForUpsert__c": false,
        "%vlocity_namespace%__MapId__c": "PurchasePlanBodyCustom6285",
        "%vlocity_namespace%__UpsertKey__c": false,
        "Name": "VPL-PurchasePlanBody",
        "VlocityDataPackType": "SObject",
        "VlocityRecordSObjectType": "%vlocity_namespace%__DRMapItem__c"
    }
]