[
    {
        "%vlocity_namespace%__DomainObjectAPIName__c": "json",
        "%vlocity_namespace%__DomainObjectCreationOrder__c": 0,
        "%vlocity_namespace%__DomainObjectFieldAPIName__c": "OL",
        "%vlocity_namespace%__FilterGroup__c": 0,
        "%vlocity_namespace%__FilterOperator__c": "=",
        "%vlocity_namespace%__FilterValue__c": "Id",
        "%vlocity_namespace%__GlobalKey__c": "3f198a0a-0cf5-9617-6737-88efa93888c4",
        "%vlocity_namespace%__InterfaceFieldAPIName__c": "OrderId",
        "%vlocity_namespace%__InterfaceObjectLookupOrder__c": 1,
        "%vlocity_namespace%__InterfaceObjectName__c": "OrderItem",
        "%vlocity_namespace%__IsDisabled__c": false,
        "%vlocity_namespace%__IsRequiredForUpsert__c": false,
        "%vlocity_namespace%__MapId__c": "VPL-GetAllOLIsCustoma1V5w000008XnbnEACItem1",
        "%vlocity_namespace%__UpsertKey__c": false,
        "Name": "VPL-GetAllOLIs",
        "VlocityDataPackType": "SObject",
        "VlocityRecordSObjectType": "%vlocity_namespace%__DRMapItem__c"
    },
    {
        "%vlocity_namespace%__DomainObjectAPIName__c": "json",
        "%vlocity_namespace%__DomainObjectCreationOrder__c": 1,
        "%vlocity_namespace%__DomainObjectFieldAPIName__c": "ALLOLI",
        "%vlocity_namespace%__DomainObjectFieldType__c": "List<Map>",
        "%vlocity_namespace%__GlobalKey__c": "01d08c82-931e-818d-d664-0a64f4ef60cf",
        "%vlocity_namespace%__IsDisabled__c": false,
        "%vlocity_namespace%__IsRequiredForUpsert__c": false,
        "%vlocity_namespace%__MapId__c": "VPL-GetAllOLIsCustom3722",
        "%vlocity_namespace%__UpsertKey__c": false,
        "Name": "VPL-GetAllOLIs",
        "VlocityDataPackType": "SObject",
        "VlocityRecordSObjectType": "%vlocity_namespace%__DRMapItem__c"
    },
    {
        "%vlocity_namespace%__DomainObjectAPIName__c": "json",
        "%vlocity_namespace%__DomainObjectCreationOrder__c": 1,
        "%vlocity_namespace%__DomainObjectFieldAPIName__c": "ALLOLI:Id",
        "%vlocity_namespace%__GlobalKey__c": "cc9d2748-9d94-5e08-63aa-d8bb45b3878f",
        "%vlocity_namespace%__InterfaceFieldAPIName__c": "OL:Id",
        "%vlocity_namespace%__IsDisabled__c": false,
        "%vlocity_namespace%__IsRequiredForUpsert__c": false,
        "%vlocity_namespace%__MapId__c": "VPL-GetAllOLIsCustoma1V5w000008XnbnEACItem7",
        "%vlocity_namespace%__UpsertKey__c": false,
        "Name": "VPL-GetAllOLIs",
        "VlocityDataPackType": "SObject",
        "VlocityRecordSObjectType": "%vlocity_namespace%__DRMapItem__c"
    },
    {
        "%vlocity_namespace%__DomainObjectAPIName__c": "json",
        "%vlocity_namespace%__DomainObjectCreationOrder__c": 1,
        "%vlocity_namespace%__DomainObjectFieldAPIName__c": "ALLOLI:Label",
        "%vlocity_namespace%__GlobalKey__c": "1b45abbf-aa44-5dca-af7e-dcb5777c3bb3",
        "%vlocity_namespace%__InterfaceFieldAPIName__c": "OL:Product2.Name",
        "%vlocity_namespace%__IsDisabled__c": false,
        "%vlocity_namespace%__IsRequiredForUpsert__c": false,
        "%vlocity_namespace%__MapId__c": "VPL-GetAllOLIsCustoma1V5w000008XnbnEACItem8",
        "%vlocity_namespace%__UpsertKey__c": false,
        "Name": "VPL-GetAllOLIs",
        "VlocityDataPackType": "SObject",
        "VlocityRecordSObjectType": "%vlocity_namespace%__DRMapItem__c"
    }
]