[
    {
        "%vlocity_namespace%__DomainObjectAPIName__c": "Order",
        "%vlocity_namespace%__DomainObjectCreationOrder__c": 1,
        "%vlocity_namespace%__DomainObjectFieldAPIName__c": "BillingCity",
        "%vlocity_namespace%__GlobalKey__c": "1d73c63d-174f-c8c7-0244-2a37b42f9b99",
        "%vlocity_namespace%__InterfaceFieldAPIName__c": "BillingAddress:City",
        "%vlocity_namespace%__IsDisabled__c": false,
        "%vlocity_namespace%__IsRequiredForUpsert__c": false,
        "%vlocity_namespace%__MapId__c": "VPL-EJUpdateOrderShippingNBillngAddressCustom1180",
        "%vlocity_namespace%__UpsertKey__c": false,
        "Name": "VPL-EJUpdateOrderShippingNBillngAddress",
        "VlocityDataPackType": "SObject",
        "VlocityRecordSObjectType": "%vlocity_namespace%__DRMapItem__c"
    },
    {
        "%vlocity_namespace%__DomainObjectAPIName__c": "Order",
        "%vlocity_namespace%__DomainObjectCreationOrder__c": 1,
        "%vlocity_namespace%__DomainObjectFieldAPIName__c": "BillingPostalCode",
        "%vlocity_namespace%__GlobalKey__c": "dfe42e3c-6a6c-5d5a-9f32-9989d68ea544",
        "%vlocity_namespace%__InterfaceFieldAPIName__c": "BillingAddress:ZipCode",
        "%vlocity_namespace%__IsDisabled__c": false,
        "%vlocity_namespace%__IsRequiredForUpsert__c": false,
        "%vlocity_namespace%__MapId__c": "VPL-EJUpdateOrderShippingNBillngAddressCustom9024",
        "%vlocity_namespace%__UpsertKey__c": false,
        "Name": "VPL-EJUpdateOrderShippingNBillngAddress",
        "VlocityDataPackType": "SObject",
        "VlocityRecordSObjectType": "%vlocity_namespace%__DRMapItem__c"
    },
    {
        "%vlocity_namespace%__DomainObjectAPIName__c": "Order",
        "%vlocity_namespace%__DomainObjectCreationOrder__c": 1,
        "%vlocity_namespace%__DomainObjectFieldAPIName__c": "BillingState",
        "%vlocity_namespace%__GlobalKey__c": "e3a95d0f-7440-e36e-9f07-385beeacee80",
        "%vlocity_namespace%__InterfaceFieldAPIName__c": "BillingAddress:State",
        "%vlocity_namespace%__IsDisabled__c": false,
        "%vlocity_namespace%__IsRequiredForUpsert__c": false,
        "%vlocity_namespace%__MapId__c": "VPL-EJUpdateOrderShippingNBillngAddressCustom1914",
        "%vlocity_namespace%__UpsertKey__c": false,
        "Name": "VPL-EJUpdateOrderShippingNBillngAddress",
        "VlocityDataPackType": "SObject",
        "VlocityRecordSObjectType": "%vlocity_namespace%__DRMapItem__c"
    },
    {
        "%vlocity_namespace%__DomainObjectAPIName__c": "Order",
        "%vlocity_namespace%__DomainObjectCreationOrder__c": 1,
        "%vlocity_namespace%__DomainObjectFieldAPIName__c": "BillingStreet",
        "%vlocity_namespace%__GlobalKey__c": "a98ddde0-d929-a3ff-3078-654989b47d62",
        "%vlocity_namespace%__InterfaceFieldAPIName__c": "BillingAddress:Street",
        "%vlocity_namespace%__IsDisabled__c": false,
        "%vlocity_namespace%__IsRequiredForUpsert__c": false,
        "%vlocity_namespace%__MapId__c": "VPL-EJUpdateOrderShippingNBillngAddress4890670418016738",
        "%vlocity_namespace%__UpsertKey__c": false,
        "Name": "VPL-EJUpdateOrderShippingNBillngAddress",
        "VlocityDataPackType": "SObject",
        "VlocityRecordSObjectType": "%vlocity_namespace%__DRMapItem__c"
    },
    {
        "%vlocity_namespace%__DomainObjectAPIName__c": "Order",
        "%vlocity_namespace%__DomainObjectCreationOrder__c": 1,
        "%vlocity_namespace%__DomainObjectFieldAPIName__c": "Id",
        "%vlocity_namespace%__GlobalKey__c": "31046245-8a08-fda2-25b8-0655eff0ecee",
        "%vlocity_namespace%__InterfaceFieldAPIName__c": "OrderId",
        "%vlocity_namespace%__IsDisabled__c": false,
        "%vlocity_namespace%__IsRequiredForUpsert__c": true,
        "%vlocity_namespace%__MapId__c": "VPL-EJUpdateOrderShippingNBillngAddress26671373178064517",
        "%vlocity_namespace%__UpsertKey__c": true,
        "Name": "VPL-EJUpdateOrderShippingNBillngAddress",
        "VlocityDataPackType": "SObject",
        "VlocityRecordSObjectType": "%vlocity_namespace%__DRMapItem__c"
    },
    {
        "%vlocity_namespace%__ConfigurationValue__c": "FAKEMAPPING",
        "%vlocity_namespace%__DomainObjectAPIName__c": "Order",
        "%vlocity_namespace%__DomainObjectCreationOrder__c": 1,
        "%vlocity_namespace%__DomainObjectFieldAPIName__c": "Id",
        "%vlocity_namespace%__FilterOperator__c": "=",
        "%vlocity_namespace%__GlobalKey__c": "e73c6dfa-06d3-86d9-a7cd-2090e41e386b",
        "%vlocity_namespace%__IsDisabled__c": true,
        "%vlocity_namespace%__IsRequiredForUpsert__c": false,
        "%vlocity_namespace%__MapId__c": "VPL-EJUpdateOrderShippingNBillngAddress8325686983019691",
        "%vlocity_namespace%__UpsertKey__c": false,
        "Name": "VPL-EJUpdateOrderShippingNBillngAddress",
        "VlocityDataPackType": "SObject",
        "VlocityRecordSObjectType": "%vlocity_namespace%__DRMapItem__c"
    },
    {
        "%vlocity_namespace%__DomainObjectAPIName__c": "Order",
        "%vlocity_namespace%__DomainObjectCreationOrder__c": 1,
        "%vlocity_namespace%__DomainObjectFieldAPIName__c": "ShippingCity",
        "%vlocity_namespace%__GlobalKey__c": "66deba0e-5c90-ce3d-602c-733afcc3574e",
        "%vlocity_namespace%__InterfaceFieldAPIName__c": "ShippingAddress:City",
        "%vlocity_namespace%__IsDisabled__c": false,
        "%vlocity_namespace%__IsRequiredForUpsert__c": false,
        "%vlocity_namespace%__MapId__c": "VPL-EJUpdateOrderShippingNBillngAddress9789435055792608",
        "%vlocity_namespace%__UpsertKey__c": false,
        "Name": "VPL-EJUpdateOrderShippingNBillngAddress",
        "VlocityDataPackType": "SObject",
        "VlocityRecordSObjectType": "%vlocity_namespace%__DRMapItem__c"
    },
    {
        "%vlocity_namespace%__DomainObjectAPIName__c": "Order",
        "%vlocity_namespace%__DomainObjectCreationOrder__c": 1,
        "%vlocity_namespace%__DomainObjectFieldAPIName__c": "ShippingPostalCode",
        "%vlocity_namespace%__GlobalKey__c": "53de34d7-d1c3-b327-325c-f4ba1afffc24",
        "%vlocity_namespace%__InterfaceFieldAPIName__c": "ShippingAddress:ZipCode",
        "%vlocity_namespace%__IsDisabled__c": false,
        "%vlocity_namespace%__IsRequiredForUpsert__c": false,
        "%vlocity_namespace%__MapId__c": "VPL-EJUpdateOrderShippingNBillngAddress7117072713615016",
        "%vlocity_namespace%__UpsertKey__c": false,
        "Name": "VPL-EJUpdateOrderShippingNBillngAddress",
        "VlocityDataPackType": "SObject",
        "VlocityRecordSObjectType": "%vlocity_namespace%__DRMapItem__c"
    },
    {
        "%vlocity_namespace%__DomainObjectAPIName__c": "Order",
        "%vlocity_namespace%__DomainObjectCreationOrder__c": 1,
        "%vlocity_namespace%__DomainObjectFieldAPIName__c": "ShippingState",
        "%vlocity_namespace%__GlobalKey__c": "deb47eee-a7ad-9802-3121-31c1cdcc1a42",
        "%vlocity_namespace%__InterfaceFieldAPIName__c": "ShippingAddress:State",
        "%vlocity_namespace%__IsDisabled__c": false,
        "%vlocity_namespace%__IsRequiredForUpsert__c": false,
        "%vlocity_namespace%__MapId__c": "VPL-EJUpdateOrderShippingNBillngAddress014760794307982827",
        "%vlocity_namespace%__UpsertKey__c": false,
        "Name": "VPL-EJUpdateOrderShippingNBillngAddress",
        "VlocityDataPackType": "SObject",
        "VlocityRecordSObjectType": "%vlocity_namespace%__DRMapItem__c"
    },
    {
        "%vlocity_namespace%__DomainObjectAPIName__c": "Order",
        "%vlocity_namespace%__DomainObjectCreationOrder__c": 1,
        "%vlocity_namespace%__DomainObjectFieldAPIName__c": "ShippingStreet",
        "%vlocity_namespace%__GlobalKey__c": "1f8a4724-f778-fe3f-994c-45bf6960e080",
        "%vlocity_namespace%__InterfaceFieldAPIName__c": "ShippingAddress:Street",
        "%vlocity_namespace%__IsDisabled__c": false,
        "%vlocity_namespace%__IsRequiredForUpsert__c": false,
        "%vlocity_namespace%__MapId__c": "VPL-EJUpdateOrderShippingNBillngAddress095975508397796",
        "%vlocity_namespace%__UpsertKey__c": false,
        "Name": "VPL-EJUpdateOrderShippingNBillngAddress",
        "VlocityDataPackType": "SObject",
        "VlocityRecordSObjectType": "%vlocity_namespace%__DRMapItem__c"
    }
]