{
    "%vlocity_namespace%__Active__c": true,
    "%vlocity_namespace%__OmniScriptId__c": {
        "Name": "VPL-EJCreateSubscriptionInMatrixx",
        "VlocityDataPackType": "VlocityMatchingKeyObject",
        "VlocityMatchingRecordSourceKey": "%vlocity_namespace%__OmniScript__c/vpl/EJCreateSubscriptionInMatrixx/Procedure",
        "VlocityRecordSObjectType": "%vlocity_namespace%__OmniScript__c"
    },
    "%vlocity_namespace%__PropertySet__c": {
        "actionMessage": "",
        "additionalInput": {
            "ExternalId": "%PurchasePlanRequestBody:SubscriptionNumber%",
            "ObjectName": "Assets(Offers)",
            "ResultCode": "%PurchasePlanCallout:_resultCode%",
            "ResultText": "%PurchasePlanCallout:_resultText%",
            "ResultType": "%PurchasePlanCallout:_resultType%",
            "SourceName": "VPL-PurchasePrePaidPlan-104-1",
            "SourceType": "Integration Procedure"
        },
        "additionalOutput": {
            "IPSuccess": false
        },
        "bundle": "VPL-CalloutError",
        "chainOnStep": false,
        "disOnTplt": false,
        "executionConditionalFormula": "PurchasePlanCallout:_resultCode != 0",
        "failOnStepError": true,
        "failureConditionalFormula": "PurchasePlanCallout:_resultCode != 0",
        "failureResponse": {
        },
        "label": "DataRaptorPostAction3",
        "preActionLogging": "%endpoint%",
        "responseJSONNode": "",
        "responseJSONPath": "",
        "restOptions": {
            "clientCertificateName": "",
            "headers": {
            },
            "isCompressed": false,
            "params": {
            },
            "sendBody": true,
            "timeout": 0,
            "xmlEscapeResponse": false
        },
        "retryCount": 0,
        "returnOnlyAdditionalOutput": false,
        "returnOnlyFailureResponse": false,
        "sendJSONNode": "",
        "sendJSONPath": "",
        "sendOnlyAdditionalInput": false,
        "show": null,
        "type": "Integration",
        "useFormulas": true
    },
    "%vlocity_namespace%__ReusableOmniScript__c": false,
    "%vlocity_namespace%__Type__c": "DataRaptor Post Action",
    "Name": "PurchasePlanCalloutError",
    "VlocityDataPackType": "SObject",
    "VlocityRecordSObjectType": "%vlocity_namespace%__Element__c",
    "VlocityRecordSourceKey": "%vlocity_namespace%__Element__c/%vlocity_namespace%__OmniScript__c/vpl/EJCreateSubscriptionInMatrixx/Procedure/PurchasePlanCalloutError"
}