{
    "%vlocity_namespace%__Active__c": true,
    "%vlocity_namespace%__OmniScriptId__c": {
        "Name": "VPL-EJCreateSubscriptionInMatrixx",
        "VlocityDataPackType": "VlocityMatchingKeyObject",
        "VlocityMatchingRecordSourceKey": "%vlocity_namespace%__OmniScript__c/vpl/EJCreateSubscriptionInMatrixx/Procedure",
        "VlocityRecordSObjectType": "%vlocity_namespace%__OmniScript__c"
    },
    "%vlocity_namespace%__PropertySet__c": {
        "actionMessage": "",
        "additionalInput": {
            "ExternalId": "%DeviceCreateRequestBody:DeviceReferenceId%",
            "ObjectName": "Asset(Device)",
            "ResultText": "%DeviceCreateRecord:errors%",
            "ResultType": "Create",
            "SourceName": "VPL Add Device 104-1",
            "SourceType": "Integration Procedure"
        },
        "additionalOutput": {
            "IPSuccess": false
        },
        "bundle": "VPL-DataUpdateError",
        "chainOnStep": false,
        "disOnTplt": false,
        "executionConditionalFormula": "DeviceCreateRequestBody:CreateAsset == true && DeviceCreateRecord:error == true",
        "failOnStepError": true,
        "failureConditionalFormula": "DeviceCreateRequestBody:CreateAsset == true && DeviceCreateRecord:error == true",
        "failureResponse": {
        },
        "label": "DataRaptorPostAction7",
        "responseJSONNode": "",
        "responseJSONPath": "",
        "returnOnlyAdditionalOutput": false,
        "returnOnlyFailureResponse": false,
        "sendJSONNode": "",
        "sendJSONPath": "DeviceCreateRecord",
        "sendOnlyAdditionalInput": false,
        "show": null,
        "useFormulas": true
    },
    "%vlocity_namespace%__ReusableOmniScript__c": false,
    "%vlocity_namespace%__Type__c": "DataRaptor Post Action",
    "Name": "DeviceCreateRecordError",
    "VlocityDataPackType": "SObject",
    "VlocityRecordSObjectType": "%vlocity_namespace%__Element__c",
    "VlocityRecordSourceKey": "%vlocity_namespace%__Element__c/%vlocity_namespace%__OmniScript__c/vpl/EJCreateSubscriptionInMatrixx/Procedure/DeviceCreateRecordError"
}