{
    "%vlocity_namespace%__Active__c": true,
    "%vlocity_namespace%__OmniScriptId__c": {
        "Name": "VPL-EJCreateSubscriptionInMatrixx",
        "VlocityDataPackType": "VlocityMatchingKeyObject",
        "VlocityMatchingRecordSourceKey": "%vlocity_namespace%__OmniScript__c/vpl/EJCreateSubscriptionInMatrixx/Procedure",
        "VlocityRecordSObjectType": "%vlocity_namespace%__OmniScript__c"
    },
    "%vlocity_namespace%__PropertySet__c": {
        "actionMessage": "",
        "additionalInput": {
        },
        "additionalOutput": {
        },
        "bundle": "VPL-DeviceCreateData",
        "chainOnStep": false,
        "dataRaptor Input Parameters": [
        ],
        "disOnTplt": false,
        "executionConditionalFormula": "DeviceCreateRequestBody:CreateAsset == true",
        "failOnStepError": true,
        "failureConditionalFormula": "DeviceCreateRequestBody:CreateAsset == true",
        "failureResponse": {
        },
        "label": "DataRaptorExtractAction7",
        "responseJSONNode": "",
        "responseJSONPath": "",
        "returnOnlyAdditionalOutput": false,
        "returnOnlyFailureResponse": false,
        "sendJSONNode": "",
        "sendJSONPath": "DeviceCreateRequestBody",
        "sendOnlyAdditionalInput": false,
        "show": null,
        "useFormulas": true
    },
    "%vlocity_namespace%__ReusableOmniScript__c": false,
    "%vlocity_namespace%__Type__c": "DataRaptor Extract Action",
    "Name": "DeviceCreateData",
    "VlocityDataPackType": "SObject",
    "VlocityRecordSObjectType": "%vlocity_namespace%__Element__c",
    "VlocityRecordSourceKey": "%vlocity_namespace%__Element__c/%vlocity_namespace%__OmniScript__c/vpl/EJCreateSubscriptionInMatrixx/Procedure/DeviceCreateData"
}