{
    "ContextId": null,
    "timeStamp": null,
    "userId": null,
    "userName": null,
    "userProfile": null,
    "userTimeZone": null,
    "vlcPersistentComponent": {
    },
    "vlcTimeTracking": {
        "CreateSubscriptionBody": null,
        "ErrorCallout": null,
        "GetSubscriptionData": null,
        "MakeCallout": null
    }
}