{
    "%vlocity_namespace%__CustomJavaScript__c": "vpl_EJDeleteNumNSim_SampleInput.json",
    "%vlocity_namespace%__DisableMetadataCache__c": false,
    "%vlocity_namespace%__ElementTypeToHTMLTemplateList__c": "{\"ElementTypeToHTMLTemplateList\":[]}",
    "%vlocity_namespace%__Element__c": [
        "vpl_EJDeleteNumNSim_Element_GetNumSimAttributesAbsLayer.json",
        "vpl_EJDeleteNumNSim_Element_NumSimAttributeTransform.json",
        "vpl_EJDeleteNumNSim_Element_DeleteNumLoopBlock.json",
        "vpl_EJDeleteNumNSim_Element_DeleteNumFromInventory.json",
        "vpl_EJDeleteNumNSim_Element_DeleteSimLoopBlock.json",
        "vpl_EJDeleteNumNSim_Element_DeleteSimFromInventory.json",
        "vpl_EJDeleteNumNSim_Element_ResponseActionOs.json"
    ],
    "%vlocity_namespace%__IsLwcEnabled__c": false,
    "%vlocity_namespace%__IsProcedure__c": true,
    "%vlocity_namespace%__IsReusable__c": false,
    "%vlocity_namespace%__Language__c": "Procedure",
    "%vlocity_namespace%__ProcedureKey__c": "vpl_EJDeleteNumNSim",
    "%vlocity_namespace%__PropertySet__c": "vpl_EJDeleteNumNSim_PropertySet.json",
    "%vlocity_namespace%__SubType__c": "EJDeleteNumNSim",
    "%vlocity_namespace%__Type__c": "vpl",
    "Name": "VPL_EJDeleteNumNSim",
    "VlocityDataPackType": "SObject",
    "VlocityRecordSObjectType": "%vlocity_namespace%__OmniScript__c",
    "VlocityRecordSourceKey": "%vlocity_namespace%__OmniScript__c/vpl/EJDeleteNumNSim/Procedure"
}