{
    "%vlocity_namespace%__CustomJavaScript__c": "vpl_EJCreateSubscription_SampleInput.json",
    "%vlocity_namespace%__DisableMetadataCache__c": false,
    "%vlocity_namespace%__ElementTypeToHTMLTemplateList__c": "{\"ElementTypeToHTMLTemplateList\":[]}",
    "%vlocity_namespace%__Element__c": [
        "vpl_EJCreateSubscription_Element_EJSubscriptionRequestBody.json",
        "vpl_EJCreateSubscription_Element_SubscriptionCreateData.json",
        "vpl_EJCreateSubscription_Element_SubscriptionCreateRecord.json",
        "vpl_EJCreateSubscription_Element_ResponseAction.json"
    ],
    "%vlocity_namespace%__IsLwcEnabled__c": false,
    "%vlocity_namespace%__IsProcedure__c": true,
    "%vlocity_namespace%__IsReusable__c": false,
    "%vlocity_namespace%__Language__c": "Procedure",
    "%vlocity_namespace%__ProcedureKey__c": "vpl_EJCreateSubscription",
    "%vlocity_namespace%__PropertySet__c": "vpl_EJCreateSubscription_PropertySet.json",
    "%vlocity_namespace%__SubType__c": "EJCreateSubscription",
    "%vlocity_namespace%__Type__c": "vpl",
    "Name": "VPL-EJCreateSubscription",
    "VlocityDataPackType": "SObject",
    "VlocityRecordSObjectType": "%vlocity_namespace%__OmniScript__c",
    "VlocityRecordSourceKey": "%vlocity_namespace%__OmniScript__c/vpl/EJCreateSubscription/Procedure"
}