{
    "%vlocity_namespace%__Active__c": true,
    "%vlocity_namespace%__OmniScriptId__c": {
        "Name": "VPL-UpdateNumberNCreateSubscription",
        "VlocityDataPackType": "VlocityMatchingKeyObject",
        "VlocityMatchingRecordSourceKey": "%vlocity_namespace%__OmniScript__c/vpl/UpdateNUmberNCreateSubscription/Procedure",
        "VlocityRecordSObjectType": "%vlocity_namespace%__OmniScript__c"
    },
    "%vlocity_namespace%__PropertySet__c": {
        "actionMessage": "",
        "additionalInput": {
            "FilterField": [
                {
                    "Name": "Flow",
                    "Value": "%FlowName%"
                }
            ],
            "OrderId": "%OrderId%",
            "RunOption": 12,
            "TargetGroupsValues": [
                {
                    "TargetGroup": "PhoneNumber",
                    "Value": "%FetchSimNumDetails:allDetails:phoneNumber%"
                },
                {
                    "TargetGroup": "ICCID",
                    "Value": "%FetchSimNumDetails:allDetails:iCCID%"
                },
                {
                    "TargetGroup": "IMSI",
                    "Value": "%FetchSimNumDetails:allDetails:iMSI%"
                },
                {
                    "TargetGroup": "ServiceIdentifier",
                    "Value": "%FetchSimNumDetails:allDetails:phoneNumberFields%"
                },
                {
                    "TargetGroup": "SerialNumber",
                    "Value": "%FetchSimNumDetails:allDetails:iCCIDFields%"
                }
            ],
            "getFieldDataType": "auto",
            "listGroupItemId": "%GetOrderItemDetails:ALLOLI:Id%"
        },
        "additionalOutput": {
        },
        "chainOnStep": false,
        "disOnTplt": false,
        "disableChainable": false,
        "executionConditionalFormula": "",
        "failOnStepError": true,
        "failureConditionalFormula": "",
        "failureResponse": {
        },
        "integrationProcedureKey": "Productized_AbstractionService",
        "label": "IntegrationProcedureAction9",
        "remoteOptions": {
            "ignoreCache": true
        },
        "responseJSONNode": "",
        "responseJSONPath": "",
        "returnOnlyAdditionalOutput": false,
        "returnOnlyFailureResponse": false,
        "sendJSONNode": "VlocityNoRootNode",
        "sendJSONPath": "null",
        "sendOnlyAdditionalInput": true,
        "show": null,
        "useFormulas": true
    },
    "%vlocity_namespace%__ReusableOmniScript__c": false,
    "%vlocity_namespace%__Type__c": "Integration Procedure Action",
    "Name": "UpdateAttributesABSLayer",
    "VlocityDataPackType": "SObject",
    "VlocityRecordSObjectType": "%vlocity_namespace%__Element__c",
    "VlocityRecordSourceKey": "%vlocity_namespace%__Element__c/%vlocity_namespace%__OmniScript__c/vpl/UpdateNUmberNCreateSubscription/Procedure/UpdateAttributesABSLayer"
}