{
    "%vlocity_namespace%__Active__c": true,
    "%vlocity_namespace%__OmniScriptId__c": {
        "Name": "VPL-JoinJourneyPreProcess",
        "VlocityDataPackType": "VlocityMatchingKeyObject",
        "VlocityMatchingRecordSourceKey": "%vlocity_namespace%__OmniScript__c/vpl/JoinJourneyPreProcess/Procedure",
        "VlocityRecordSObjectType": "%vlocity_namespace%__OmniScript__c"
    },
    "%vlocity_namespace%__PropertySet__c": {
        "additionalOutput": {
            "DeliveryTime": "%SetMetadataResult:Data:DeliveryTime%",
            "PreAddDays1": "%SetMetadataResult:Data:PreAddDays1%",
            "PreAddDays2": "%SetMetadataResult:Data:PreAddDays2%",
            "RecordTypeId": "%SetMetadataResult:Data:RecordType%",
            "StdAddDays1": "%SetMetadataResult:Data:StdAddDays1%",
            "StdAddDays2": "%SetMetadataResult:Data:StdAddDays2%",
            "UserType": "%SetMetadataResult:Data:UserType%"
        },
        "disOnTplt": false,
        "executionConditionalFormula": "",
        "label": "ResponseAction1",
        "responseDefaultData": {
        },
        "responseFormat": "JSON",
        "responseJSONNode": "",
        "responseJSONPath": "",
        "returnFullDataJSON": false,
        "returnOnlyAdditionalOutput": true,
        "sendJSONNode": "",
        "sendJSONPath": "",
        "show": null,
        "useFormulas": true,
        "vlcResponseHeaders": {
        }
    },
    "%vlocity_namespace%__ReusableOmniScript__c": false,
    "%vlocity_namespace%__Type__c": "Response Action",
    "Name": "MetadataResponse",
    "VlocityDataPackType": "SObject",
    "VlocityRecordSObjectType": "%vlocity_namespace%__Element__c",
    "VlocityRecordSourceKey": "%vlocity_namespace%__Element__c/%vlocity_namespace%__OmniScript__c/vpl/JoinJourneyPreProcess/Procedure/MetadataResponse"
}