{
    "%vlocity_namespace%__AdditionalInformation__c": "It creates a customer  interaction and interaction topic when we invoke the Check Out.",
    "%vlocity_namespace%__CustomJavaScript__c": "vpl_EJCreateCustomerInteration_SampleInput.json",
    "%vlocity_namespace%__DisableMetadataCache__c": false,
    "%vlocity_namespace%__ElementTypeToHTMLTemplateList__c": "{\"ElementTypeToHTMLTemplateList\":[]}",
    "%vlocity_namespace%__Element__c": [
        "vpl_EJCreateCustomerInteration_Element_CreateInteractionId.json",
        "vpl_EJCreateCustomerInteration_Element_CreateInterationTopic.json",
        "vpl_EJCreateCustomerInteration_Element_ResponseAction.json"
    ],
    "%vlocity_namespace%__IsLwcEnabled__c": false,
    "%vlocity_namespace%__IsProcedure__c": true,
    "%vlocity_namespace%__IsReusable__c": false,
    "%vlocity_namespace%__Language__c": "Procedure",
    "%vlocity_namespace%__ProcedureKey__c": "vpl_EJCreateCustomerInteration",
    "%vlocity_namespace%__PropertySet__c": "vpl_EJCreateCustomerInteration_PropertySet.json",
    "%vlocity_namespace%__SubType__c": "EJCreateCustomerInteration",
    "%vlocity_namespace%__Type__c": "vpl",
    "Name": "VPL-EJCreateCustomerInteration",
    "VlocityDataPackType": "SObject",
    "VlocityRecordSObjectType": "%vlocity_namespace%__OmniScript__c",
    "VlocityRecordSourceKey": "%vlocity_namespace%__OmniScript__c/vpl/EJCreateCustomerInteration/Procedure"
}