{
    "AccountId": "0015w00002DucXTAAZ",
    "AssetReferenceId": "device888888802",
    "BillingCycleData": true,
    "BillingCycleDateOffset": 0,
    "BillingCycleId": 300,
    "BillingCycleImmediateChange": true,
    "DeviceName": "device888888802",
    "DeviceProductId": "01t46000003d7jh",
    "Email": "tapash",
    "FirstName": "Tapash",
    "Language": "English",
    "LastName": "Sahu",
    "LineOfBusiness": "Telecom",
    "MSISDN": "82634581298",
    "NotificationPreference": 1,
    "Offer": [
        {
            "EndTime": "2019-04-11T22: 00: 00",
            "ExternalId": "STARTER_SMS",
            "PreActiveState": true
        },
        {
            "EndTime": "2019-04-11T22: 00: 00",
            "ExternalId": "STARTER_V",
            "PreActiveState": true
        }
    ],
    "OfferProductId": "01t5w00000ENcaXAAT",
    "PhoneNumber": "99",
    "SubscriptionNumber": "Sub-5a3e1e0e-1b43-4390-9ec2-f7eb090acb42"
}