{
    "%vlocity_namespace%__Active__c": true,
    "%vlocity_namespace%__OmniScriptId__c": {
        "Name": "VPL-PaymentThroughIVR",
        "VlocityDataPackType": "VlocityMatchingKeyObject",
        "VlocityMatchingRecordSourceKey": "%vlocity_namespace%__OmniScript__c/vpl/PaymentThroughIVR/English",
        "VlocityRecordSObjectType": "%vlocity_namespace%__OmniScript__c"
    },
    "%vlocity_namespace%__ParentElementId__c": {
        "%vlocity_namespace%__OmniScriptId__c": {
            "Name": "VPL-PaymentThroughIVR",
            "VlocityDataPackType": "VlocityMatchingKeyObject",
            "VlocityMatchingRecordSourceKey": "%vlocity_namespace%__OmniScript__c/vpl/PaymentThroughIVR/English",
            "VlocityRecordSObjectType": "%vlocity_namespace%__OmniScript__c"
        },
        "Name": "AgentPaymentViaIVR",
        "VlocityDataPackType": "VlocityMatchingKeyObject",
        "VlocityMatchingRecordSourceKey": "%vlocity_namespace%__Element__c/%vlocity_namespace%__OmniScript__c/vpl/PaymentThroughIVR/English/AgentPaymentViaIVR",
        "VlocityRecordSObjectType": "%vlocity_namespace%__Element__c"
    },
    "%vlocity_namespace%__ParentElementName__c": "AgentPaymentViaIVR",
    "%vlocity_namespace%__ParentElementType__c": "Step",
    "%vlocity_namespace%__PropertySet__c": {
        "HTMLTemplateId": "",
        "controlWidth": 12,
        "disOnTplt": false,
        "iconName": "",
        "iconPosition": "left",
        "iconPositionOptions": [
            "left",
            "right"
        ],
        "iconVariant": "",
        "label": "Cancel",
        "message": {
        },
        "objectAction": "home",
        "objectActionOptions": [
            "home",
            "list",
            "new"
        ],
        "pubsub": false,
        "recordAction": "view",
        "recordActionOptions": [
            "clone",
            "edit",
            "view"
        ],
        "replace": true,
        "replaceOptions": [
            {
                "label": "No",
                "value": false
            },
            {
                "label": "Yes",
                "value": true
            }
        ],
        "show": {
            "group": {
                "operator": "AND",
                "rules": [
                    {
                        "condition": "=",
                        "data": "Account360",
                        "field": "ContextName"
                    }
                ]
            }
        },
        "targetFilter": "Recent",
        "targetId": "%interactionId%",
        "targetLWCLayout": "lightning",
        "targetLWCLayoutOptions": [
            "lightning",
            "newport"
        ],
        "targetName": "%vlocity_namespace%__CustomerInteraction__c",
        "targetType": "Record",
        "targetTypeOptions": [
            "Component",
            "Current Page",
            "Knowledge Article",
            "Named Page",
            "Navigation Item",
            "Object",
            "Record",
            "Record Relationship",
            "Web Page",
            "Vlocity OmniScript"
        ],
        "validationRequired": "none",
        "variant": "link",
        "variantOptions": [
            "brand",
            "outline-brand",
            "neutral",
            "success",
            "destructive",
            "text-destructive",
            "inverse",
            "link"
        ]
    },
    "%vlocity_namespace%__ReusableOmniScript__c": true,
    "%vlocity_namespace%__Type__c": "Navigate Action",
    "Name": "NavigateToConsole",
    "VlocityDataPackType": "SObject",
    "VlocityRecordSObjectType": "%vlocity_namespace%__Element__c",
    "VlocityRecordSourceKey": "%vlocity_namespace%__Element__c/%vlocity_namespace%__OmniScript__c/vpl/PaymentThroughIVR/English/NavigateToConsole"
}