{
    "AccountId": "0014600001Vy2MxAAJ",
    "Attr": {
        "$": "MtxMobileDeviceExtension",
        "Imsi": 79920101023
    },
    "Name": "device79920101023",
    "ProductId": "01t46000003d7jh",
    "SubscriptionId": "a3B46000000MWQ6EAO"
}