{
    "%vlocity_namespace%__Active__c": true,
    "%vlocity_namespace%__OmniScriptId__c": {
        "Name": "VPL-DeliveryOptions",
        "VlocityDataPackType": "VlocityMatchingKeyObject",
        "VlocityMatchingRecordSourceKey": "%vlocity_namespace%__OmniScript__c/vpl/DeliveryOptions/English",
        "VlocityRecordSObjectType": "%vlocity_namespace%__OmniScript__c"
    },
    "%vlocity_namespace%__ParentElementId__c": {
        "%vlocity_namespace%__OmniScriptId__c": {
            "Name": "VPL-DeliveryOptions",
            "VlocityDataPackType": "VlocityMatchingKeyObject",
            "VlocityMatchingRecordSourceKey": "%vlocity_namespace%__OmniScript__c/vpl/DeliveryOptions/English",
            "VlocityRecordSObjectType": "%vlocity_namespace%__OmniScript__c"
        },
        "Name": "DeliveryOption",
        "VlocityDataPackType": "VlocityMatchingKeyObject",
        "VlocityMatchingRecordSourceKey": "%vlocity_namespace%__Element__c/%vlocity_namespace%__OmniScript__c/vpl/DeliveryOptions/English/DeliveryOption",
        "VlocityRecordSObjectType": "%vlocity_namespace%__Element__c"
    },
    "%vlocity_namespace%__ParentElementName__c": "DeliveryOption",
    "%vlocity_namespace%__ParentElementType__c": "Step",
    "%vlocity_namespace%__PropertySet__c": {
        "HTMLTemplateId": "",
        "controlWidth": 12,
        "dataType": null,
        "dateFormat": "MM-dd-yyyy",
        "disOnTplt": false,
        "expression": "IF((%DeliveryOption:SameCurrentAddress% = true), IF((%DeliveryOption:SameCurrentAddress% = true), IF(%CreditCheckWhereYouLive:CurrentAddressCity%<>null,%CreditCheckWhereYouLive:CurrentAddressCity%,''), IF(%CurrentAddressScenario:MailingCity%<>null, %CurrentAddressScenario:MailingCity%, '')) , IF((%DeliveryOption:BlockEnterCurrentAddressManually:EnterCurrentAddressManually% = true), IF(%DeliveryOption:ShippingAddress:ShippingCity%<>null,%DeliveryOption:ShippingAddress:ShippingCity%,''), IF(%CurrentAddressScenario:MailingCity%<>null, %CurrentAddressScenario:MailingCity%, '')))",
        "hide": true,
        "hideGroupSep": false,
        "inputWidth": 12,
        "label": null,
        "mask": null,
        "show": null,
        "showInputWidth": false
    },
    "%vlocity_namespace%__ReusableOmniScript__c": true,
    "%vlocity_namespace%__Type__c": "Formula",
    "Name": "ShippingAddressCity",
    "VlocityDataPackType": "SObject",
    "VlocityRecordSObjectType": "%vlocity_namespace%__Element__c",
    "VlocityRecordSourceKey": "%vlocity_namespace%__Element__c/%vlocity_namespace%__OmniScript__c/vpl/DeliveryOptions/English/ShippingAddressCity"
}