{
    "%vlocity_namespace%__DisableMetadataCache__c": false,
    "%vlocity_namespace%__ElementTypeToHTMLTemplateList__c": "{\"ElementTypeToHTMLTemplateList\":[]}",
    "%vlocity_namespace%__Element__c": [
        "vpl_JoinJourneyAgentSession_English_Element_JoinJourneyPreProcess.json",
        "vpl_JoinJourneyAgentSession_English_Element_GuestEmailAddressStep.json",
        "vpl_JoinJourneyAgentSession_English_Element_AccountEmailMsg.json",
        "vpl_JoinJourneyAgentSession_English_Element_ValidateEmailMatch.json",
        "vpl_JoinJourneyAgentSession_English_Element_GuestEmailaddress.json",
        "vpl_JoinJourneyAgentSession_English_Element_GuestConfirmEmailAddress.json",
        "vpl_JoinJourneyAgentSession_English_Element_CheckEmail.json",
        "vpl_JoinJourneyAgentSession_English_Element_DisplayEnteredEmailAddress.json",
        "vpl_JoinJourneyAgentSession_English_Element_CancelFromEmail.json",
        "vpl_JoinJourneyAgentSession_English_Element_EligibilityCheckForEmail.json",
        "vpl_JoinJourneyAgentSession_English_Element_CheckPageForEmail.json",
        "vpl_JoinJourneyAgentSession_English_Element_CheckForExistingEmail.json",
        "vpl_JoinJourneyAgentSession_English_Element_CancelForCheckPage.json",
        "vpl_JoinJourneyAgentSession_English_Element_CreateJoinUserAcctConIP.json",
        "vpl_JoinJourneyAgentSession_English_Element_BasketToCartUsingCartContextKey.json",
        "vpl_JoinJourneyAgentSession_English_Element_VPL_AboutYou1.json",
        "vpl_JoinJourneyAgentSession_English_Element_PreCreateInteractionTopic.json",
        "vpl_JoinJourneyAgentSession_English_Element_VPL-WhereYouLive1.json",
        "vpl_JoinJourneyAgentSession_English_Element_ReviewDetails.json",
        "vpl_JoinJourneyAgentSession_English_Element_ReviewDetailsLWC.json",
        "vpl_JoinJourneyAgentSession_English_Element_TermsPrivacyReturnsTxtBk.json",
        "vpl_JoinJourneyAgentSession_English_Element_TermsPrivacyReturns.json",
        "vpl_JoinJourneyAgentSession_English_Element_TermsPrivacyReturnsCheck.json",
        "vpl_JoinJourneyAgentSession_English_Element_LineBreakAfterPrivacy.json",
        "vpl_JoinJourneyAgentSession_English_Element_MarketingText.json",
        "vpl_JoinJourneyAgentSession_English_Element_MarketingPreferences.json",
        "vpl_JoinJourneyAgentSession_English_Element_checkboxEnabled.json",
        "vpl_JoinJourneyAgentSession_English_Element_CancelForReviewDetails.json",
        "vpl_JoinJourneyAgentSession_English_Element_customButton.json",
        "vpl_JoinJourneyAgentSession_English_Element_UpdateDefaultNumberNSubscription.json",
        "vpl_JoinJourneyAgentSession_English_Element_VPL-DeliveryOptions1.json",
        "vpl_JoinJourneyAgentSession_English_Element_RedirectSetValue.json",
        "vpl_JoinJourneyAgentSession_English_Element_VPL-ChooseNumber1.json",
        "vpl_JoinJourneyAgentSession_English_Element_GetOrderDetails.json",
        "vpl_JoinJourneyAgentSession_English_Element_VPL-OrderSummary1.json",
        "vpl_JoinJourneyAgentSession_English_Element_VPL-PaymentThroughIVR1.json",
        "vpl_JoinJourneyAgentSession_English_Element_SetValueForPaymentOutcome.json",
        "vpl_JoinJourneyAgentSession_English_Element_UpdateInteractionTopicPayment.json",
        "vpl_JoinJourneyAgentSession_English_Element_ConfirmBacktohome.json",
        "vpl_JoinJourneyAgentSession_English_Element_TransactionFailedClose.json",
        "vpl_JoinJourneyAgentSession_English_Element_CreateDeviceNOfferInMatrix.json",
        "vpl_JoinJourneyAgentSession_English_Element_DeleteNumNSimFromInventory.json",
        "vpl_JoinJourneyAgentSession_English_Element_SubmitOrder.json",
        "vpl_JoinJourneyAgentSession_English_Element_VPL-OrderSummary2.json"
    ],
    "%vlocity_namespace%__IsLwcEnabled__c": true,
    "%vlocity_namespace%__IsProcedure__c": false,
    "%vlocity_namespace%__IsReusable__c": false,
    "%vlocity_namespace%__Language__c": "English",
    "%vlocity_namespace%__LastPreviewPage__c": "Lightning",
    "%vlocity_namespace%__PropertySet__c": "vpl_JoinJourneyAgentSession_English_PropertySet.json",
    "%vlocity_namespace%__SubType__c": "JoinJourneyAgentSession",
    "%vlocity_namespace%__Type__c": "vpl",
    "Name": "VPL-JoinJourneyAgentSession",
    "VlocityDataPackType": "SObject",
    "VlocityRecordSObjectType": "%vlocity_namespace%__OmniScript__c",
    "VlocityRecordSourceKey": "%vlocity_namespace%__OmniScript__c/vpl/JoinJourneyAgentSession/English"
}