{
    "%vlocity_namespace%__Active__c": true,
    "%vlocity_namespace%__OmniScriptId__c": {
        "Name": "VPL-DeleteSIMFromInventory",
        "VlocityDataPackType": "VlocityMatchingKeyObject",
        "VlocityMatchingRecordSourceKey": "%vlocity_namespace%__OmniScript__c/vpl/DeleteSIMFromInventory/Procedure",
        "VlocityRecordSObjectType": "%vlocity_namespace%__OmniScript__c"
    },
    "%vlocity_namespace%__PropertySet__c": {
        "actionMessage": "",
        "additionalInput": {
        },
        "additionalOutput": {
        },
        "chainOnStep": false,
        "disOnTplt": false,
        "executionConditionalFormula": "IMSI <> null",
        "failOnStepError": true,
        "failureConditionalFormula": "",
        "failureResponse": {
        },
        "label": "HTTPAction1",
        "namedCredential": "",
        "postActionLogging": "",
        "preActionLogging": "%endpoint%",
        "responseJSONNode": "",
        "responseJSONPath": "",
        "restMethod": "DELETE",
        "restOptions": {
            "clientCertificateName": "",
            "headers": {
            },
            "isCompressed": false,
            "params": {
            },
            "sendBody": true,
            "timeout": 0,
            "xmlEscapeResponse": false
        },
        "restPath": "https://vcps-comms-b2c.firebaseio.com/siminventory/%IMSI%.json",
        "retryCount": 0,
        "returnOnlyAdditionalOutput": false,
        "returnOnlyFailureResponse": false,
        "sendJSONNode": "null",
        "sendJSONPath": "null",
        "sendOnlyAdditionalInput": false,
        "show": null,
        "type": "Integration",
        "useFormulas": true
    },
    "%vlocity_namespace%__ReusableOmniScript__c": false,
    "%vlocity_namespace%__Type__c": "Rest Action",
    "Name": "DeleteSIMCall",
    "VlocityDataPackType": "SObject",
    "VlocityRecordSObjectType": "%vlocity_namespace%__Element__c",
    "VlocityRecordSourceKey": "%vlocity_namespace%__Element__c/%vlocity_namespace%__OmniScript__c/vpl/DeleteSIMFromInventory/Procedure/DeleteSIMCall"
}