{
    "%vlocity_namespace%__Active__c": true,
    "%vlocity_namespace%__OmniScriptId__c": {
        "Name": "VPL-WhereYouLive",
        "VlocityDataPackType": "VlocityMatchingKeyObject",
        "VlocityMatchingRecordSourceKey": "%vlocity_namespace%__OmniScript__c/vpl/WhereYouLive/English",
        "VlocityRecordSObjectType": "%vlocity_namespace%__OmniScript__c"
    },
    "%vlocity_namespace%__ParentElementId__c": {
        "%vlocity_namespace%__OmniScriptId__c": {
            "Name": "VPL-WhereYouLive",
            "VlocityDataPackType": "VlocityMatchingKeyObject",
            "VlocityMatchingRecordSourceKey": "%vlocity_namespace%__OmniScript__c/vpl/WhereYouLive/English",
            "VlocityRecordSObjectType": "%vlocity_namespace%__OmniScript__c"
        },
        "Name": "CreditCheckWhereYouLive",
        "VlocityDataPackType": "VlocityMatchingKeyObject",
        "VlocityMatchingRecordSourceKey": "%vlocity_namespace%__Element__c/%vlocity_namespace%__OmniScript__c/vpl/WhereYouLive/English/CreditCheckWhereYouLive",
        "VlocityRecordSObjectType": "%vlocity_namespace%__Element__c"
    },
    "%vlocity_namespace%__ParentElementName__c": "CreditCheckWhereYouLive",
    "%vlocity_namespace%__ParentElementType__c": "Step",
    "%vlocity_namespace%__PropertySet__c": {
        "bStandalone": false,
        "conditionType": "Hide if False",
        "controlWidth": 12,
        "customAttributes": [
            {
                "name": "vipname",
                "source": "vpl_WhereYouLivePostProcessIP"
            },
            {
                "name": "isreview",
                "source": "%IsReview%"
            },
            {
                "name": "detailstoupdate",
                "source": "%CreditCheckWhereYouLive%"
            },
            {
                "name": "existingdetails",
                "source": "%ExistingDetails%"
            },
            {
                "name": "context",
                "source": "Address"
            }
        ],
        "disOnTplt": false,
        "hide": false,
        "label": null,
        "lwcName": "vplUpdateAndRedirect",
        "show": {
            "group": {
                "operator": "AND",
                "rules": [
                    {
                        "condition": "<>",
                        "data": "Failure",
                        "field": "validateAddress"
                    }
                ]
            }
        }
    },
    "%vlocity_namespace%__ReusableOmniScript__c": true,
    "%vlocity_namespace%__Type__c": "Custom Lightning Web Component",
    "Name": "NextOrRedirectToStep",
    "VlocityDataPackType": "SObject",
    "VlocityRecordSObjectType": "%vlocity_namespace%__Element__c",
    "VlocityRecordSourceKey": "%vlocity_namespace%__Element__c/%vlocity_namespace%__OmniScript__c/vpl/WhereYouLive/English/NextOrRedirectToStep"
}